3 Fuel Consumption – Wildfire Emissions
…
  # Savanna Fires
  "Savanna", "Savanna_Woodland", "All", "Early", 9.0, 0.29, 2.6,
  "Savanna", "Savanna_Woodland", "All", "Late", 9.0, 0.51, 4.6,
  "Savanna", "Savanna_Grassland", "All", "Early", 6.8, 0.31, 2.1,
  "Savanna", "Savanna_Grassland", "All", "Late", 6.8, 0.83, 5.6,
  "Savanna", "Other_Grassland", "All", NA, 13.4, 0.52, 7.0,

  # Organic Soil Fires
  "Organic_Soil", "Tropical_Peatland", "Tropical", NA, 41.2, 1.0, 41.2
)

print(fuel_consumption_table)
## # A tibble: 10 × 7
##   fire_category vegetation_type       climate_zone   season
##   <chr>         <chr>                 <chr>          <chr> 
## 1 Forest        Humid_Tropical_Forest Tropical_Moist <NA>  
## 2 Forest        Other_Forest          Boreal         <NA>  
## 3 Forest        Other_Forest          Temperate      <NA>  
## 4 Forest        Other_Forest          Tropical       <NA>  
## 5 Savanna       Savanna_Woodland      All            Early 
## 6 Savanna       Savanna_Woodland      All            Late  
## # ℹ 4 more rows
## # ℹ 3 more variables: MB_tDM_ha <dbl>, Cf <dbl>,
## #   MB_Cf <dbl>
…
